…
    ## tibble [100 × 7] (S3: tbl_df/tbl/data.frame)
    ##  $ case : num [1:100] 1 2 3 4 5 6 7 8 9 10 ...
    ##  $ taxes: num [1:100] 3104 1173 3076 1608 1454 ...
    ##  $ beds : num [1:100] 4 2 4 3 3 3 3 3 5 3 ...
    ##  $ baths: num [1:100] 2 1 2 2 3 2 2 2 4 2 ...
    ##  $ new  : num [1:100] 0 0 0 0 0 1 0 1 0 0 ...
    ##  $ price: num [1:100] 280 146 238 200 160 ...
    ##  $ size : num [1:100] 2048 912 1654 2068 1477 ...

``` r
print(Houses)
```

    ## # A tibble: 100 × 7
    ##     case taxes  beds baths   new price  size
    ##    <dbl> <dbl> <dbl> <dbl> <dbl> <dbl> <dbl>
    ##  1     1  3104     4     2     0  280.  2048
    ##  2     2  1173     2     1     0  146.   912
    ##  3     3  3076     4     2     0  238.  1654
    ##  4     4  1608     3     2     0  200   2068
    ##  5     5  1454     3     3     0  160.  1477
    ##  6     6  2997     3     2     1  500.  3153
    ##  7     7  4054     3     2     0  266.  1355
    ##  8     8  3002     3     2     1  290.  2075
    ##  9     9  6627     5     4     0  587   3990
    ## 10    10   320     3     2     0   70   1160
    ## # ℹ 90 more rows
…
    ## tibble [100 × 7] (S3: tbl_df/tbl/data.frame)
    ##  $ case : num [1:100] 1 2 3 4 5 6 7 8 9 10 ...
    ##  $ taxes: num [1:100] 3104 1173 3076 1608 1454 ...
    ##  $ beds : num [1:100] 4 2 4 3 3 3 3 3 5 3 ...
    ##  $ baths: num [1:100] 2 1 2 2 3 2 2 2 4 2 ...
    ##  $ new  : num [1:100] 0 0 0 0 0 1 0 1 0 0 ...
    ##  $ price: num [1:100] 280 146 238 200 160 ...
    ##  $ size : num [1:100] 2048 912 1654 2068 1477 ...

    ## # A tibble: 100 × 7
    ##     case taxes  beds baths   new price  size
    ##    <dbl> <dbl> <dbl> <dbl> <dbl> <dbl> <dbl>
    ##  1     1  3104     4     2     0  280.  2048
    ##  2     2  1173     2     1     0  146.   912
    ##  3     3  3076     4     2     0  238.  1654
    ##  4     4  1608     3     2     0  200   2068
    ##  5     5  1454     3     3     0  160.  1477
    ##  6     6  2997     3     2     1  500.  3153
    ##  7     7  4054     3     2     0  266.  1355
    ##  8     8  3002     3     2     1  290.  2075
    ##  9     9  6627     5     4     0  587   3990
    ## 10    10   320     3     2     0   70   1160
    ## # ℹ 90 more rows
…
